<svg width="32" height="32" viewBox="0 0 32 32" fill="none" xmlns="http://www.w3.org/2000/svg">
<rect width="32" height="32" rx="10" fill="#FFEEEC"/>
<path d="M14 24V18H18V24H23V16H26L16 7L6 16H9V24H14Z" fill="#FF9187"/>
</svg>
